{
  "_meta": {
    "sources": [
      "loopback/common/models",
      "loopback/server/models",
      "../common/models",
      "./models"
    ],
    "mixins": [
      "loopback/common/mixins",
      "loopback/server/mixins",
      "../common/mixins",
      "./mixins"
    ]
  },
  "User": {
    "dataSource": "MySql",
    "public": false
  },
  "AccessToken": {
    "dataSource": "MySql",
    "public": false
  },
  "ACL": {
    "dataSource": "MySql",
    "public": false
  },
  "RoleMapping": {
    "dataSource": "MySql",
    "public": false,
    "options": {
      "strictObjectIDCoercion": true
    }
  },
  "Role": {
    "dataSource": "MySql",
    "public": false
  },
  "Email": {
    "dataSource": "emailDs"
  },
  "user": {
    "dataSource": "MySql",
    "public": true,
    "options": {
      "emailVerificationRequired": true
    }
  },
  "Google": {
    "dataSource": "GoogleDS",
    "public": true
  },
  "GooglePlaceTypesSupported": {
    "dataSource": "MySql",
    "public": true
  },
  "Category": {
    "dataSource": "MySql",
    "public": true
  }
}
